{
	"Login": "le"
	,"Phone": "89128555634"
	,"EMail": "ee@a.u"
	,"LastName":"Захаров"
	,"FirstName":"Захар"
	,"MiddleName":"Захарович"
	,"RegNum":"7777"
	,"INN":"765286893205"
	,"SROName":"Зелёные АУ"
	,"CorrespondenceAddress":"Воткинск, Пушкинская 4, оф. 3"
}