2020-05-08T00:00:02 query for max_revision from debtor ..
2020-05-08T00:00:03 .. got max_revision=0.
2020-05-08T00:00:04 request..
http://local.test/orpau-mock/efrsb/web/replication-api.php/debtor?revision-greater-than=0&portion-size=2
2020-05-08T00:00:05 .. got 2 debtors.
2020-05-08T00:00:06 inserted 2 debtors
2020-05-08T00:00:07 request..
http://local.test/orpau-mock/efrsb/web/replication-api.php/debtor?revision-greater-than=2&portion-size=2
2020-05-08T00:00:08 .. got 2 debtors.
2020-05-08T00:00:09 inserted 2 debtors
