﻿{
	"Фамилия":"Караваев"
	,"Имя":"Каравай"
	,"Отчество":"Караваевич"
	,"ИНН":"2"
	,"ПроголосовалЗа":{
		"Фамилия":"Сергеев"
		,"Имя":"Сергей"
		,"Отчество":"Сергеевич"
		,"ИНН":"3"
		,"СРО":"Держи карман шире"
	}
}
