*************************** 1. row ***************************
    id_SRO: 1
      OGRN: NULL
    RegNum: 100500
       INN: 7491772104
      Name: ААУ 'Гарантия'
ShortTitle: NULL
     Title: NULL
  UrAdress: NULL
  Revision: -2
*************************** 2. row ***************************
    id_SRO: 2
      OGRN: NULL
    RegNum: 100501
       INN: 5426643024
      Name: ААУ 'Инициатива'
ShortTitle: NULL
     Title: NULL
  UrAdress: NULL
  Revision: -1
*************************** 3. row ***************************
    id_SRO: 3
      OGRN: NULL
    RegNum: 345
       INN: 2436706493
      Name: Народная СРО АУ - Народная саморегулируемая
ShortTitle: Народная СРО АУ
     Title: Народная саморегулируемая
  UrAdress: NULL
  Revision: 1
